phys481/optical_pumping/ALLfiles/ALL0010/A0010CH1.CSV

Memory Length,4000,
Trigger Level,8.00000e+00,
Source,CH1,
Probe,1.0X,
Vertical Units,V,
Vertical Scale,5.00000e+00,
Vertical Position,0.00000e+00,
Horizontal Units,S,
Horizontal Scale,5.00000e-01,
Horizontal Position,0.0000000e+00,
Horizontal Mode,Roll Mode,
Waveform Last Dot Address,4000,
Sampling Period,2.00000e-03,
Firmware,V1.12,
Time, ,
Mode,Detail,
Waveform Data,
-4.000000e+0,9.00e+0,
-3.998000e+0,9.00e+0,
-3.996000e+0,9.00e+0,
-3.994000e+0,8.80e+0,
-3.992000e+0,8.80e+0,
-3.990000e+0,9.00e+0,
-3.988000e+0,9.00e+0,
-3.986000e+0,9.00e+0,
-3.984000e+0,9.00e+0,
-3.982000e+0,8.80e+0,
-3.980000e+0,9.00e+0,
-3.978000e+0,9.00e+0,
-3.976000e+0,9.00e+0,
-3.974000e+0,9.20e+0,
-3.972000e+0,9.00e+0,
-3.970000e+0,9.00e+0,
-3.968000e+0,9.00e+0,
-3.966000e+0,9.00e+0,
-3.964000e+0,9.20e+0,
-3.962000e+0,9.20e+0,
-3.960000e+0,9.00e+0,
-3.958000e+0,9.20e+0,
-3.956000e+0,9.20e+0,
-3.954000e+0,9.00e+0,
-3.952000e+0,9.20e+0,
-3.950000e+0,9.00e+0,
-3.948000e+0,9.20e+0,
-3.946000e+0,9.20e+0,
-3.944000e+0,9.20e+0,
-3.942000e+0,9.00e+0,
-3.940000e+0,9.00e+0,
-3.938000e+0,9.40e+0,
-3.936000e+0,9.00e+0,
-3.934000e+0,9.20e+0,
-3.932000e+0,9.20e+0,
-3.930000e+0,9.20e+0,
-3.928000e+0,9.00e+0,
-3.926000e+0,9.20e+0,
-3.924000e+0,9.20e+0,
-3.922000e+0,9.40e+0,
-3.920000e+0,9.20e+0,
-3.918000e+0,9.20e+0,
-3.916000e+0,9.20e+0,
-3.914000e+0,9.20e+0,
-3.912000e+0,9.40e+0,
-3.910000e+0,9.20e+0,
-3.908000e+0,9.40e+0,
-3.906000e+0,9.20e+0,
-3.904000e+0,9.00e+0,
-3.902000e+0,9.40e+0,
-3.900000e+0,9.40e+0,
-3.898000e+0,9.60e+0,
-3.896000e+0,9.20e+0,
-3.894000e+0,9.20e+0,
-3.892000e+0,9.20e+0,
-3.890000e+0,9.40e+0,
-3.888000e+0,9.40e+0,
-3.886000e+0,9.20e+0,
-3.884000e+0,9.40e+0,
-3.882000e+0,9.20e+0,
-3.880000e+0,9.40e+0,
-3.878000e+0,9.20e+0,
-3.876000e+0,9.20e+0,
-3.874000e+0,9.60e+0,
-3.872000e+0,9.40e+0,
-3.870000e+0,9.40e+0,
-3.868000e+0,9.20e+0,
-3.866000e+0,9.40e+0,
-3.864000e+0,9.60e+0,
-3.862000e+0,9.40e+0,
-3.860000e+0,9.60e+0,
-3.858000e+0,9.40e+0,
-3.856000e+0,9.60e+0,
-3.854000e+0,9.40e+0,
-3.852000e+0,9.40e+0,
-3.850000e+0,9.60e+0,
-3.848000e+0,9.60e+0,
-3.846000e+0,9.40e+0,
-3.844000e+0,9.60e+0,
-3.842000e+0,2.80e+0,
-3.840000e+0,-6.20e+0,
-3.838000e+0,-8.60e+0,
-3.836000e+0,-9.40e+0,
-3.834000e+0,-9.40e+0,
-3.832000e+0,-9.40e+0,
-3.830000e+0,-9.40e+0,
-3.828000e+0,-9.40e+0,
-3.826000e+0,-9.60e+0,
-3.824000e+0,-9.40e+0,
-3.822000e+0,-9.40e+0,
-3.820000e+0,-9.40e+0,
-3.818000e+0,-9.40e+0,
-3.816000e+0,-9.40e+0,
-3.814000e+0,-9.40e+0,
-3.812000e+0,-9.40e+0,
-3.810000e+0,-9.40e+0,
-3.808000e+0,-9.20e+0,
-3.806000e+0,-9.20e+0,
-3.804000e+0,-9.20e+0,
-3.802000e+0,-9.40e+0,
-3.800000e+0,-9.40e+0,
-3.798000e+0,-9.40e+0,
-3.796000e+0,-9.20e+0,
-3.794000e+0,-9.60e+0,
-3.792000e+0,-9.40e+0,
-3.790000e+0,-9.20e+0,
-3.788000e+0,-9.20e+0,
-3.786000e+0,-9.40e+0,
-3.784000e+0,-9.20e+0,
-3.782000e+0,-9.20e+0,
-3.780000e+0,-9.40e+0,
-3.778000e+0,-9.20e+0,
-3.776000e+0,-9.20e+0,
-3.774000e+0,-9.20e+0,
-3.772000e+0,-9.20e+0,
-3.770000e+0,-9.40e+0,
-3.768000e+0,-9.20e+0,
-3.766000e+0,-9.00e+0,
-3.764000e+0,-9.20e+0,
-3.762000e+0,-9.20e+0,
-3.760000e+0,-9.20e+0,
-3.758000e+0,-9.20e+0,
-3.756000e+0,-9.00e+0,
-3.754000e+0,-9.20e+0,
-3.752000e+0,-9.40e+0,
-3.750000e+0,-9.00e+0,
-3.748000e+0,-9.20e+0,
-3.746000e+0,-9.20e+0,
-3.744000e+0,-9.00e+0,
-3.742000e+0,-9.00e+0,
-3.740000e+0,-9.00e+0,
-3.738000e+0,-8.80e+0,
-3.736000e+0,-9.00e+0,
-3.734000e+0,-9.00e+0,
-3.732000e+0,-9.00e+0,
-3.730000e+0,-9.00e+0,
-3.728000e+0,-8.80e+0,
-3.726000e+0,-9.00e+0,
-3.724000e+0,-9.00e+0,
-3.722000e+0,-8.80e+0,
-3.720000e+0,-9.20e+0,
-3.718000e+0,-9.00e+0,
-3.716000e+0,-9.00e+0,
-3.714000e+0,-8.80e+0,
-3.712000e+0,-9.00e+0,
-3.710000e+0,-9.00e+0,
-3.708000e+0,-8.80e+0,
-3.706000e+0,-9.00e+0,
-3.704000e+0,-9.00e+0,
-3.702000e+0,-9.00e+0,
-3.700000e+0,-9.00e+0,
-3.698000e+0,-8.80e+0,
-3.696000e+0,-9.00e+0,
-3.694000e+0,-8.80e+0,
-3.692000e+0,-8.80e+0,
-3.690000e+0,-9.00e+0,
-3.688000e+0,-8.80e+0,
-3.686000e+0,-9.00e+0,
-3.684000e+0,-8.80e+0,
-3.682000e+0,-9.00e+0,
-3.680000e+0,-9.00e+0,
-3.678000e+0,-8.80e+0,
-3.676000e+0,-8.80e+0,
-3.674000e+0,-8.60e+0,
-3.672000e+0,-8.80e+0,
-3.670000e+0,-8.80e+0,
-3.668000e+0,-8.80e+0,
-3.666000e+0,-8.80e+0,
-3.664000e+0,-8.80e+0,
-3.662000e+0,-8.80e+0,
-3.660000e+0,-8.80e+0,
-3.658000e+0,-8.80e+0,
-3.656000e+0,-8.80e+0,
-3.654000e+0,-8.60e+0,
-3.652000e+0,-8.80e+0,
-3.650000e+0,-8.80e+0,
-3.648000e+0,-8.60e+0,
-3.646000e+0,-8.80e+0,
-3.644000e+0,-8.60e+0,
-3.642000e+0,-8.60e+0,
-3.640000e+0,-8.60e+0,
-3.638000e+0,-8.60e+0,
-3.636000e+0,-8.80e+0,
-3.634000e+0,-8.80e+0,
-3.632000e+0,-8.60e+0,
-3.630000e+0,-8.60e+0,
-3.628000e+0,6.00e-1,
-3.626000e+0,1.00e+0,
-3.624000e+0,8.00e-1,
-3.622000e+0,1.00e+0,
-3.620000e+0,8.00e-1,
-3.618000e+0,1.00e+0,
-3.616000e+0,6.00e-1,
-3.614000e+0,8.00e-1,
-3.612000e+0,8.00e-1,
-3.610000e+0,1.00e+0,
-3.608000e+0,1.00e+0,
-3.606000e+0,1.00e+0,
-3.604000e+0,8.00e-1,
-3.602000e+0,8.00e-1,
-3.600000e+0,1.00e+0,
-3.598000e+0,1.00e+0,
-3.596000e+0,1.00e+0,
-3.594000e+0,1.00e+0,
-3.592000e+0,1.00e+0,
-3.590000e+0,1.00e+0,
-3.588000e+0,1.20e+0,
-3.586000e+0,8.00e-1,
-3.584000e+0,1.20e+0,
-3.582000e+0,1.00e+0,
-3.580000e+0,1.00e+0,
-3.578000e+0,1.00e+0,
-3.576000e+0,8.00e-1,
-3.574000e+0,1.00e+0,
-3.572000e+0,1.00e+0,
-3.570000e+0,1.00e+0,
-3.568000e+0,1.00e+0,
-3.566000e+0,1.00e+0,
-3.564000e+0,1.20e+0,
-3.562000e+0,1.00e+0,
-3.560000e+0,1.00e+0,
-3.558000e+0,1.00e+0,
-3.556000e+0,1.00e+0,
-3.554000e+0,1.00e+0,
-3.552000e+0,1.20e+0,
-3.550000e+0,1.20e+0,
-3.548000e+0,1.00e+0,
-3.546000e+0,1.20e+0,
-3.544000e+0,1.20e+0,
-3.542000e+0,1.00e+0,
-3.540000e+0,1.20e+0,
-3.538000e+0,1.20e+0,
-3.536000e+0,1.00e+0,
-3.534000e+0,1.20e+0,
-3.532000e+0,1.20e+0,
-3.530000e+0,1.20e+0,
-3.528000e+0,1.20e+0,
-3.526000e+0,1.40e+0,
-3.524000e+0,1.20e+0,
-3.522000e+0,1.20e+0,
-3.520000e+0,1.00e+0,
-3.518000e+0,1.20e+0,
-3.516000e+0,1.20e+0,
-3.514000e+0,1.00e+0,
-3.512000e+0,1.20e+0,
-3.510000e+0,1.20e+0,
-3.508000e+0,1.20e+0,
-3.506000e+0,1.20e+0,
-3.504000e+0,1.20e+0,
-3.502000e+0,1.20e+0,
-3.500000e+0,1.20e+0,
-3.498000e+0,1.20e+0,
-3.496000e+0,1.20e+0,
-3.494000e+0,1.20e+0,
-3.492000e+0,1.20e+0,
-3.490000e+0,1.20e+0,
-3.488000e+0,1.20e+0,
-3.486000e+0,1.20e+0,
-3.484000e+0,1.40e+0,
-3.482000e+0,1.20e+0,
-3.480000e+0,1.20e+0,
-3.478000e+0,1.40e+0,
-3.476000e+0,1.40e+0,
-3.474000e+0,1.40e+0,
-3.472000e+0,1.40e+0,
-3.470000e+0,1.20e+0,
-3.468000e+0,1.60e+0,
-3.466000e+0,1.60e+0,
-3.464000e+0,1.40e+0,
-3.462000e+0,1.20e+0,
-3.460000e+0,1.40e+0,
-3.458000e+0,1.60e+0,
-3.456000e+0,1.40e+0,
-3.454000e+0,1.40e+0,
-3.452000e+0,1.20e+0,
-3.450000e+0,1.20e+0,
-3.448000e+0,1.60e+0,
-3.446000e+0,1.40e+0,
-3.444000e+0,1.40e+0,
-3.442000e+0,1.40e+0,
-3.440000e+0,1.60e+0,
-3.438000e+0,1.40e+0,
-3.436000e+0,1.60e+0,
-3.434000e+0,1.60e+0,
-3.432000e+0,1.60e+0,
-3.430000e+0,1.60e+0,
-3.428000e+0,1.80e+0,
-3.426000e+0,1.40e+0,
-3.424000e+0,1.40e+0,
-3.422000e+0,1.80e+0,
-3.420000e+0,1.40e+0,
-3.418000e+0,1.60e+0,
-3.416000e+0,1.60e+0,
-3.414000e+0,1.60e+0,
-3.412000e+0,1.60e+0,
-3.410000e+0,1.60e+0,
-3.408000e+0,1.80e+0,
-3.406000e+0,1.60e+0,
-3.404000e+0,1.80e+0,
-3.402000e+0,1.40e+0,
-3.400000e+0,1.80e+0,
-3.398000e+0,1.80e+0,
-3.396000e+0,1.80e+0,
-3.394000e+0,1.60e+0,
-3.392000e+0,1.60e+0,
-3.390000e+0,1.80e+0,
-3.388000e+0,1.60e+0,
-3.386000e+0,1.60e+0,
-3.384000e+0,1.60e+0,
-3.382000e+0,1.80e+0,
-3.380000e+0,1.80e+0,
-3.378000e+0,2.00e+0,
-3.376000e+0,1.80e+0,
-3.374000e+0,1.60e+0,
-3.372000e+0,1.80e+0,
-3.370000e+0,1.80e+0,
-3.368000e+0,1.80e+0,
-3.366000e+0,1.80e+0,
-3.364000e+0,1.60e+0,
-3.362000e+0,1.80e+0,
-3.360000e+0,1.80e+0,
-3.358000e+0,2.00e+0,
-3.356000e+0,1.80e+0,
-3.354000e+0,1.80e+0,
-3.352000e+0,2.00e+0,
-3.350000e+0,1.80e+0,
-3.348000e+0,1.80e+0,
-3.346000e+0,1.80e+0,
-3.344000e+0,1.80e+0,
-3.342000e+0,2.00e+0,
-3.340000e+0,1.80e+0,
-3.338000e+0,1.80e+0,
-3.336000e+0,1.80e+0,
-3.334000e+0,1.80e+0,
-3.332000e+0,2.00e+0,
-3.330000e+0,1.80e+0,
-3.328000e+0,1.80e+0,
-3.326000e+0,1.80e+0,
-3.324000e+0,2.00e+0,
-3.322000e+0,2.00e+0,
-3.320000e+0,2.00e+0,
-3.318000e+0,2.00e+0,
-3.316000e+0,2.00e+0,
-3.314000e+0,2.00e+0,
-3.312000e+0,1.80e+0,
-3.310000e+0,1.80e+0,
-3.308000e+0,2.20e+0,
-3.306000e+0,2.00e+0,
-3.304000e+0,1.80e+0,
-3.302000e+0,2.00e+0,
-3.300000e+0,2.00e+0,
-3.298000e+0,2.20e+0,
-3.296000e+0,2.00e+0,
-3.294000e+0,2.00e+0,
-3.292000e+0,2.00e+0,
-3.290000e+0,2.00e+0,
-3.288000e+0,2.00e+0,
-3.286000e+0,2.20e+0,
-3.284000e+0,2.00e+0,
-3.282000e+0,2.40e+0,
-3.280000e+0,2.00e+0,
-3.278000e+0,2.00e+0,
-3.276000e+0,2.20e+0,
-3.274000e+0,2.00e+0,
-3.272000e+0,2.20e+0,
-3.270000e+0,2.20e+0,
-3.268000e+0,2.40e+0,
-3.266000e+0,2.40e+0,
-3.264000e+0,2.40e+0,
-3.262000e+0,2.20e+0,
-3.260000e+0,2.20e+0,
-3.258000e+0,2.40e+0,
-3.256000e+0,2.20e+0,
-3.254000e+0,2.00e+0,
-3.252000e+0,2.40e+0,
-3.250000e+0,2.20e+0,
-3.248000e+0,2.20e+0,
-3.246000e+0,2.20e+0,
-3.244000e+0,2.20e+0,
-3.242000e+0,2.20e+0,
-3.240000e+0,2.20e+0,
-3.238000e+0,2.40e+0,
-3.236000e+0,2.20e+0,
-3.234000e+0,2.20e+0,
-3.232000e+0,2.20e+0,
-3.230000e+0,2.40e+0,
-3.228000e+0,2.20e+0,
-3.226000e+0,2.20e+0,
-3.224000e+0,2.20e+0,
-3.222000e+0,2.20e+0,
-3.220000e+0,2.20e+0,
-3.218000e+0,2.20e+0,
-3.216000e+0,2.40e+0,
-3.214000e+0,2.40e+0,
-3.212000e+0,2.20e+0,
-3.210000e+0,2.40e+0,
-3.208000e+0,2.20e+0,
-3.206000e+0,2.40e+0,
-3.204000e+0,2.20e+0,
-3.202000e+0,2.20e+0,
-3.200000e+0,2.20e+0,
-3.198000e+0,2.40e+0,
-3.196000e+0,2.40e+0,
-3.194000e+0,2.40e+0,
-3.192000e+0,2.40e+0,
-3.190000e+0,2.40e+0,
-3.188000e+0,2.40e+0,
-3.186000e+0,2.40e+0,
-3.184000e+0,2.40e+0,
-3.182000e+0,2.40e+0,
-3.180000e+0,2.40e+0,
-3.178000e+0,2.40e+0,
-3.176000e+0,2.40e+0,
-3.174000e+0,2.40e+0,
-3.172000e+0,2.40e+0,
-3.170000e+0,2.40e+0,
-3.168000e+0,2.40e+0,
-3.166000e+0,2.40e+0,
-3.164000e+0,2.40e+0,
-3.162000e+0,2.60e+0,
-3.160000e+0,2.60e+0,
-3.158000e+0,2.40e+0,
-3.156000e+0,2.60e+0,
-3.154000e+0,2.40e+0,
-3.152000e+0,2.60e+0,
-3.150000e+0,2.40e+0,
-3.148000e+0,2.40e+0,
-3.146000e+0,2.40e+0,
-3.144000e+0,2.60e+0,
-3.142000e+0,2.40e+0,
-3.140000e+0,2.40e+0,
-3.138000e+0,2.80e+0,
-3.136000e+0,2.60e+0,
-3.134000e+0,2.60e+0,
-3.132000e+0,2.40e+0,
-3.130000e+0,2.60e+0,
-3.128000e+0,2.40e+0,
-3.126000e+0,2.80e+0,
-3.124000e+0,2.60e+0,
-3.122000e+0,2.60e+0,
-3.120000e+0,2.60e+0,
-3.118000e+0,2.60e+0,
-3.116000e+0,2.80e+0,
-3.114000e+0,2.60e+0,
-3.112000e+0,2.80e+0,
-3.110000e+0,2.60e+0,
-3.108000e+0,2.60e+0,
-3.106000e+0,2.60e+0,
-3.104000e+0,2.80e+0,
-3.102000e+0,2.60e+0,
-3.100000e+0,2.60e+0,
-3.098000e+0,2.80e+0,
-3.096000e+0,2.60e+0,
-3.094000e+0,2.80e+0,
-3.092000e+0,2.60e+0,
-3.090000e+0,2.60e+0,
-3.088000e+0,2.60e+0,
-3.086000e+0,2.80e+0,
-3.084000e+0,2.60e+0,
-3.082000e+0,2.80e+0,
-3.080000e+0,2.80e+0,
-3.078000e+0,2.80e+0,
-3.076000e+0,2.80e+0,
-3.074000e+0,2.80e+0,
-3.072000e+0,2.80e+0,
-3.070000e+0,2.80e+0,
-3.068000e+0,2.80e+0,
-3.066000e+0,2.80e+0,
-3.064000e+0,2.60e+0,
-3.062000e+0,2.80e+0,
-3.060000e+0,2.80e+0,
-3.058000e+0,2.80e+0,
-3.056000e+0,2.80e+0,
-3.054000e+0,2.80e+0,
-3.052000e+0,3.00e+0,
-3.050000e+0,2.80e+0,
-3.048000e+0,2.80e+0,
-3.046000e+0,2.60e+0,
-3.044000e+0,2.80e+0,
-3.042000e+0,2.80e+0,
-3.040000e+0,2.60e+0,
-3.038000e+0,3.00e+0,
-3.036000e+0,3.00e+0,
-3.034000e+0,2.80e+0,
-3.032000e+0,2.80e+0,
-3.030000e+0,3.00e+0,
-3.028000e+0,3.00e+0,
-3.026000e+0,2.80e+0,
-3.024000e+0,3.00e+0,
-3.022000e+0,3.20e+0,
-3.020000e+0,3.00e+0,
-3.018000e+0,2.80e+0,
-3.016000e+0,2.80e+0,
-3.014000e+0,2.80e+0,
-3.012000e+0,3.00e+0,
-3.010000e+0,3.20e+0,
-3.008000e+0,3.00e+0,
-3.006000e+0,3.20e+0,
-3.004000e+0,3.20e+0,
-3.002000e+0,3.20e+0,
-3.000000e+0,3.20e+0,
-2.998000e+0,3.00e+0,
-2.996000e+0,2.80e+0,
-2.994000e+0,3.00e+0,
-2.992000e+0,3.20e+0,
-2.990000e+0,3.00e+0,
-2.988000e+0,3.00e+0,
-2.986000e+0,3.20e+0,
-2.984000e+0,3.00e+0,
-2.982000e+0,3.20e+0,
-2.980000e+0,3.00e+0,
-2.978000e+0,3.40e+0,
-2.976000e+0,3.20e+0,
-2.974000e+0,2.80e+0,
-2.972000e+0,3.00e+0,
-2.970000e+0,3.20e+0,
-2.968000e+0,3.00e+0,
-2.966000e+0,3.20e+0,
-2.964000e+0,3.00e+0,
-2.962000e+0,3.40e+0,
-2.960000e+0,3.40e+0,
-2.958000e+0,3.20e+0,
-2.956000e+0,3.20e+0,
-2.954000e+0,3.20e+0,
-2.952000e+0,3.20e+0,
-2.950000e+0,3.20e+0,
-2.948000e+0,3.20e+0,
-2.946000e+0,3.40e+0,
-2.944000e+0,3.00e+0,
-2.942000e+0,3.20e+0,
-2.940000e+0,3.40e+0,
-2.938000e+0,3.40e+0,
-2.936000e+0,3.20e+0,
-2.934000e+0,3.20e+0,
-2.932000e+0,3.40e+0,
-2.930000e+0,3.20e+0,
-2.928000e+0,3.40e+0,
-2.926000e+0,3.40e+0,
-2.924000e+0,3.20e+0,
-2.922000e+0,3.60e+0,
-2.920000e+0,3.20e+0,
-2.918000e+0,3.20e+0,
-2.916000e+0,3.40e+0,
-2.914000e+0,3.60e+0,
-2.912000e+0,3.40e+0,
-2.910000e+0,3.40e+0,
-2.908000e+0,3.20e+0,
-2.906000e+0,3.40e+0,
-2.904000e+0,3.40e+0,
-2.902000e+0,3.40e+0,
-2.900000e+0,3.40e+0,
-2.898000e+0,3.40e+0,
-2.896000e+0,3.40e+0,
-2.894000e+0,3.40e+0,
-2.892000e+0,3.60e+0,
-2.890000e+0,3.40e+0,
-2.888000e+0,3.40e+0,
-2.886000e+0,3.40e+0,
-2.884000e+0,3.40e+0,
-2.882000e+0,3.40e+0,
-2.880000e+0,3.40e+0,
-2.878000e+0,3.40e+0,
-2.876000e+0,3.60e+0,
-2.874000e+0,3.40e+0,
-2.872000e+0,3.60e+0,
-2.870000e+0,3.40e+0,
-2.868000e+0,3.80e+0,
-2.866000e+0,3.60e+0,
-2.864000e+0,3.40e+0,
-2.862000e+0,3.60e+0,
-2.860000e+0,3.60e+0,
-2.858000e+0,3.60e+0,
-2.856000e+0,3.80e+0,
-2.854000e+0,3.60e+0,
-2.852000e+0,3.60e+0,
-2.850000e+0,3.60e+0,
-2.848000e+0,3.60e+0,
-2.846000e+0,3.40e+0,
-2.844000e+0,3.40e+0,
-2.842000e+0,3.80e+0,
-2.840000e+0,3.60e+0,
-2.838000e+0,3.80e+0,
-2.836000e+0,3.60e+0,
-2.834000e+0,3.40e+0,
-2.832000e+0,3.80e+0,
-2.830000e+0,3.60e+0,
-2.828000e+0,3.60e+0,
-2.826000e+0,3.60e+0,
-2.824000e+0,3.80e+0,
-2.822000e+0,3.80e+0,
-2.820000e+0,3.80e+0,
-2.818000e+0,3.60e+0,
-2.816000e+0,3.80e+0,
-2.814000e+0,3.60e+0,
-2.812000e+0,3.60e+0,
-2.810000e+0,3.60e+0,
-2.808000e+0,3.60e+0,
-2.806000e+0,3.80e+0,
-2.804000e+0,4.00e+0,
-2.802000e+0,3.80e+0,
-2.800000e+0,3.80e+0,
-2.798000e+0,3.80e+0,
-2.796000e+0,4.00e+0,
-2.794000e+0,4.00e+0,
-2.792000e+0,3.80e+0,
-2.790000e+0,3.80e+0,
-2.788000e+0,3.80e+0,
-2.786000e+0,3.80e+0,
-2.784000e+0,3.80e+0,
-2.782000e+0,3.80e+0,
-2.780000e+0,4.00e+0,
-2.778000e+0,3.80e+0,
-2.776000e+0,4.00e+0,
-2.774000e+0,4.00e+0,
-2.772000e+0,4.00e+0,
-2.770000e+0,4.00e+0,
-2.768000e+0,4.00e+0,
-2.766000e+0,3.60e+0,
-2.764000e+0,3.80e+0,
-2.762000e+0,4.20e+0,
-2.760000e+0,4.00e+0,
-2.758000e+0,3.80e+0,
-2.756000e+0,3.80e+0,
-2.754000e+0,3.80e+0,
-2.752000e+0,3.80e+0,
-2.750000e+0,4.00e+0,
-2.748000e+0,3.80e+0,
-2.746000e+0,3.80e+0,
-2.744000e+0,4.00e+0,
-2.742000e+0,3.80e+0,
-2.740000e+0,4.00e+0,
-2.738000e+0,4.00e+0,
-2.736000e+0,4.00e+0,
-2.734000e+0,4.00e+0,
-2.732000e+0,4.00e+0,
-2.730000e+0,4.00e+0,
-2.728000e+0,4.00e+0,
-2.726000e+0,4.00e+0,
-2.724000e+0,4.00e+0,
-2.722000e+0,4.20e+0,
-2.720000e+0,4.00e+0,
-2.718000e+0,4.00e+0,
-2.716000e+0,4.00e+0,
-2.714000e+0,4.00e+0,
-2.712000e+0,4.20e+0,
-2.710000e+0,4.20e+0,
-2.708000e+0,4.20e+0,
-2.706000e+0,4.20e+0,
-2.704000e+0,4.20e+0,
-2.702000e+0,4.00e+0,
-2.700000e+0,4.00e+0,
-2.698000e+0,4.20e+0,
-2.696000e+0,4.00e+0,
-2.694000e+0,4.20e+0,
-2.692000e+0,4.20e+0,
-2.690000e+0,4.20e+0,
-2.688000e+0,4.20e+0,
-2.686000e+0,4.40e+0,
-2.684000e+0,4.20e+0,
-2.682000e+0,4.20e+0,
-2.680000e+0,4.20e+0,
-2.678000e+0,4.00e+0,
-2.676000e+0,4.20e+0,
-2.674000e+0,4.40e+0,
-2.672000e+0,4.20e+0,
-2.670000e+0,4.20e+0,
-2.668000e+0,4.20e+0,
-2.666000e+0,4.20e+0,
-2.664000e+0,4.20e+0,
-2.662000e+0,4.20e+0,
-2.660000e+0,4.40e+0,
-2.658000e+0,4.40e+0,
-2.656000e+0,4.20e+0,
-2.654000e+0,4.40e+0,
-2.652000e+0,4.40e+0,
-2.650000e+0,4.20e+0,
-2.648000e+0,4.20e+0,
-2.646000e+0,4.20e+0,
-2.644000e+0,4.40e+0,
-2.642000e+0,4.40e+0,
-2.640000e+0,4.20e+0,
-2.638000e+0,4.40e+0,
-2.636000e+0,4.20e+0,
-2.634000e+0,4.20e+0,
-2.632000e+0,4.20e+0,
-2.630000e+0,4.40e+0,
-2.628000e+0,4.20e+0,
-2.626000e+0,4.20e+0,
-2.624000e+0,4.40e+0,
-2.622000e+0,4.40e+0,
-2.620000e+0,4.40e+0,
-2.618000e+0,4.40e+0,
-2.616000e+0,4.40e+0,
-2.614000e+0,4.40e+0,
-2.612000e+0,4.60e+0,
-2.610000e+0,4.40e+0,
-2.608000e+0,4.20e+0,
-2.606000e+0,4.40e+0,
-2.604000e+0,4.40e+0,
-2.602000e+0,4.60e+0,
-2.600000e+0,4.40e+0,
-2.598000e+0,4.40e+0,
-2.596000e+0,4.60e+0,
-2.594000e+0,4.60e+0,
-2.592000e+0,4.60e+0,
-2.590000e+0,4.60e+0,
-2.588000e+0,4.40e+0,
-2.586000e+0,4.40e+0,
-2.584000e+0,4.40e+0,
-2.582000e+0,4.60e+0,
-2.580000e+0,4.60e+0,
-2.578000e+0,4.60e+0,
-2.576000e+0,4.80e+0,
-2.574000e+0,4.40e+0,
-2.572000e+0,4.80e+0,
-2.570000e+0,4.80e+0,
-2.568000e+0,4.40e+0,
-2.566000e+0,4.40e+0,
-2.564000e+0,4.60e+0,
-2.562000e+0,4.40e+0,
-2.560000e+0,4.40e+0,
-2.558000e+0,4.60e+0,
-2.556000e+0,4.60e+0,
-2.554000e+0,4.80e+0,
-2.552000e+0,4.60e+0,
-2.550000e+0,4.60e+0,
-2.548000e+0,4.60e+0,
-2.546000e+0,4.60e+0,
-2.544000e+0,4.60e+0,
-2.542000e+0,4.80e+0,
-2.540000e+0,4.80e+0,
-2.538000e+0,4.60e+0,
-2.536000e+0,4.60e+0,
-2.534000e+0,4.80e+0,
-2.532000e+0,4.80e+0,
-2.530000e+0,4.80e+0,
-2.528000e+0,4.60e+0,
-2.526000e+0,5.00e+0,
-2.524000e+0,4.80e+0,
-2.522000e+0,4.80e+0,
-2.520000e+0,4.40e+0,
-2.518000e+0,4.60e+0,
-2.516000e+0,4.60e+0,
-2.514000e+0,4.80e+0,
-2.512000e+0,4.80e+0,
-2.510000e+0,4.80e+0,
-2.508000e+0,4.80e+0,
-2.506000e+0,4.80e+0,
-2.504000e+0,5.00e+0,
-2.502000e+0,4.80e+0,
-2.500000e+0,4.80e+0,
-2.498000e+0,4.80e+0,
-2.496000e+0,4.80e+0,
-2.494000e+0,4.80e+0,
-2.492000e+0,4.80e+0,
-2.490000e+0,4.80e+0,
-2.488000e+0,4.80e+0,
-2.486000e+0,4.80e+0,
-2.484000e+0,4.80e+0,
-2.482000e+0,5.00e+0,
-2.480000e+0,5.00e+0,
-2.478000e+0,5.00e+0,
-2.476000e+0,4.80e+0,
-2.474000e+0,4.80e+0,
-2.472000e+0,5.00e+0,
-2.470000e+0,5.00e+0,
-2.468000e+0,5.00e+0,
-2.466000e+0,5.20e+0,
-2.464000e+0,5.00e+0,
-2.462000e+0,5.00e+0,
-2.460000e+0,5.00e+0,
-2.458000e+0,5.00e+0,
-2.456000e+0,5.00e+0,
-2.454000e+0,5.00e+0,
-2.452000e+0,5.00e+0,
-2.450000e+0,5.00e+0,
-2.448000e+0,5.00e+0,
-2.446000e+0,5.00e+0,
-2.444000e+0,5.00e+0,
-2.442000e+0,5.00e+0,
-2.440000e+0,5.00e+0,
-2.438000e+0,5.00e+0,
-2.436000e+0,5.20e+0,
-2.434000e+0,5.00e+0,
-2.432000e+0,5.00e+0,
-2.430000e+0,5.20e+0,
-2.428000e+0,5.00e+0,
-2.426000e+0,5.00e+0,
-2.424000e+0,5.00e+0,
-2.422000e+0,5.20e+0,
-2.420000e+0,5.20e+0,
-2.418000e+0,5.00e+0,
-2.416000e+0,5.20e+0,
-2.414000e+0,5.20e+0,
-2.412000e+0,5.00e+0,
-2.410000e+0,5.20e+0,
-2.408000e+0,5.40e+0,
-2.406000e+0,5.20e+0,
-2.404000e+0,5.00e+0,
-2.402000e+0,5.40e+0,
-2.400000e+0,5.20e+0,
-2.398000e+0,5.00e+0,
-2.396000e+0,5.20e+0,
-2.394000e+0,5.20e+0,
-2.392000e+0,5.20e+0,
-2.390000e+0,5.20e+0,
-2.388000e+0,5.20e+0,
-2.386000e+0,5.00e+0,
-2.384000e+0,5.20e+0,
-2.382000e+0,5.20e+0,
-2.380000e+0,5.40e+0,
-2.378000e+0,5.20e+0,
-2.376000e+0,5.40e+0,
-2.374000e+0,5.20e+0,
-2.372000e+0,5.20e+0,
-2.370000e+0,5.20e+0,
-2.368000e+0,5.40e+0,
-2.366000e+0,5.20e+0,
-2.364000e+0,5.20e+0,
-2.362000e+0,5.20e+0,
-2.360000e+0,5.20e+0,
-2.358000e+0,5.40e+0,
-2.356000e+0,5.40e+0,
-2.354000e+0,5.20e+0,
-2.352000e+0,5.20e+0,
-2.350000e+0,5.20e+0,
-2.348000e+0,5.40e+0,
-2.346000e+0,5.40e+0,
-2.344000e+0,5.20e+0,
-2.342000e+0,5.60e+0,
-2.340000e+0,5.20e+0,
-2.338000e+0,5.60e+0,
-2.336000e+0,5.40e+0,
-2.334000e+0,5.40e+0,
-2.332000e+0,5.60e+0,
-2.330000e+0,5.60e+0,
-2.328000e+0,5.40e+0,
-2.326000e+0,5.80e+0,
-2.324000e+0,5.20e+0,
-2.322000e+0,5.20e+0,
-2.320000e+0,5.60e+0,
-2.318000e+0,5.60e+0,
-2.316000e+0,5.60e+0,
-2.314000e+0,5.60e+0,
-2.312000e+0,5.60e+0,
-2.310000e+0,5.40e+0,
-2.308000e+0,5.40e+0,
-2.306000e+0,5.80e+0,
-2.304000e+0,5.60e+0,
-2.302000e+0,5.60e+0,
-2.300000e+0,5.40e+0,
-2.298000e+0,5.60e+0,
-2.296000e+0,5.60e+0,
-2.294000e+0,5.60e+0,
-2.292000e+0,5.60e+0,
-2.290000e+0,5.80e+0,
-2.288000e+0,5.60e+0,
-2.286000e+0,5.60e+0,
-2.284000e+0,5.80e+0,
-2.282000e+0,5.80e+0,
-2.280000e+0,5.60e+0,
-2.278000e+0,5.60e+0,
-2.276000e+0,5.60e+0,
-2.274000e+0,5.80e+0,
-2.272000e+0,5.60e+0,
-2.270000e+0,5.80e+0,
-2.268000e+0,5.60e+0,
-2.266000e+0,5.60e+0,
-2.264000e+0,5.60e+0,
-2.262000e+0,5.80e+0,
-2.260000e+0,5.80e+0,
-2.258000e+0,5.60e+0,
-2.256000e+0,5.80e+0,
-2.254000e+0,5.80e+0,
-2.252000e+0,5.80e+0,
-2.250000e+0,5.80e+0,
-2.248000e+0,6.00e+0,
-2.246000e+0,6.00e+0,
-2.244000e+0,5.60e+0,
-2.242000e+0,5.60e+0,
-2.240000e+0,5.80e+0,
-2.238000e+0,5.60e+0,
-2.236000e+0,5.80e+0,
-2.234000e+0,5.80e+0,
-2.232000e+0,5.80e+0,
-2.230000e+0,6.00e+0,
-2.228000e+0,5.80e+0,
